<svg id="Logo_Telefonica" data-name="Logo Telefonica" xmlns="http://www.w3.org/2000/svg" width="179.664" height="22.268" viewBox="0 0 179.664 22.268">
  <defs>
    <style>
      .cls-1 {
        fill: #50535a;
      }
    </style>
  </defs>
  <path id="Trazado_7654" data-name="Trazado 7654" class="cls-1" d="M181.655,217.828c-1.214,1.764-2.911,3.358-4.37,3.358-.621.024-.894-.333-.882-1.047a6,6,0,0,1,.186-1.336,14.2,14.2,0,0,0,4.032-2.767,3.683,3.683,0,0,0,1.186-2.278c.011-.729-.448-1.105-1.356-1.117a5.947,5.947,0,0,0-3.937,1.984,8.859,8.859,0,0,0-2.421,5.418,2.021,2.021,0,0,0,2.3,2.3,7.162,7.162,0,0,0,4.508-2.457,4.96,4.96,0,0,0-.184,1.174,2.271,2.271,0,0,0,1.725,2.346l.228-.106a2.608,2.608,0,0,1-.1-1.014,14.671,14.671,0,0,1,1.194-4.1c1.264-3.184,3.1-6.828,3.91-8.974l-1.928.365a.865.865,0,0,0-.59.51c-.931,1.978-1.887,4.087-3.081,6.834C181.935,217.212,181.807,217.522,181.655,217.828Zm-1.8-4.24c.3,0,.4.207.4.469,0,1.241-1.534,2.828-3.483,3.985C177.26,216.122,178.643,213.571,179.851,213.588Zm32.967,7.4c0,.88.56,1.422,1.626,1.391A4.954,4.954,0,0,0,217.6,220.8a1.941,1.941,0,0,0,2.254,1.588,5.754,5.754,0,0,0,3.8-2.018v.3a1.522,1.522,0,0,0,1.618,1.7,4.982,4.982,0,0,0,3.671-2.456l.037.02a7.539,7.539,0,0,0-.236,1.408,1.918,1.918,0,0,0,1.646,2.04l.235-.094c-.355-.85.138-2.964.343-3.667A52.266,52.266,0,0,1,233.5,213.3a3.324,3.324,0,0,0-1.76-.468c-2.493-.09-5.006.938-6.837,4.178a13.81,13.81,0,0,0-.912,1.9,7.2,7.2,0,0,1-.65.766,4.325,4.325,0,0,1-2.555,1.467c-.547.011-.845-.371-.833-1.049.011-2.591,2.3-6.531,3.85-6.54.429,0,.61.185.61.549a2.146,2.146,0,0,1-.714,1.407l.183.163c1.042-.4,2.011-1.122,2.017-1.9,0-.881-1.017-1.045-1.919-1.037a5.627,5.627,0,0,0-3.933,1.932,9.542,9.542,0,0,0-2.457,5.065,3.438,3.438,0,0,1-1.983,1.368.434.434,0,0,1-.5-.453,5.586,5.586,0,0,1,.423-1.535c.671-1.672,1.64-3.755,2.834-6.229,0,0-1.818.3-2.076.382a.9.9,0,0,0-.608.5c-.778,1.649-1.7,3.551-2.277,4.971A7.168,7.168,0,0,0,212.818,220.985Zm17-7.092a2.288,2.288,0,0,1,1.471-.206c-.153.321-.851,1.729-1.4,3-.861,1.986-2.151,3.991-3.349,4.278-.412.118-.655-.059-.649-.47C225.93,218.731,227.865,214.808,229.819,213.893Zm-44.947,6.151a2.088,2.088,0,0,0,2.4,2.3,7.446,7.446,0,0,0,5.013-2.664c-.369.989-.683,1.835-.874,2.294a6.963,6.963,0,0,1-1.777,3.088l.091.164c2.452.141,3.367-1.578,4.374-4.383s1.861-5.254,2.526-6.948a19.619,19.619,0,0,0,3.44-.155c-2.218.985-4.105,4.525-3.884,6.859a1.807,1.807,0,0,0,2.031,1.746c2.548,0,4.69-3.014,5.509-5a9.385,9.385,0,0,0,.827-3.088c.608-.106,1.188-.211,1.478-.256.557-.075.449.542.273,1.007-1.04,2.909-2.844,7.132-2.852,7.2h1.989c.863-1.8,1.4-2.944,2.082-4.163.829-1.438,2.68-3.8,3.416-3.808.261,0,.33.166.263.42-.128.974-2.51,4.7-2.471,6.542a2.136,2.136,0,0,0,1.762,2.209l.231-.13a2.107,2.107,0,0,1-.158-.978,12.944,12.944,0,0,1,1.364-4.211c.614-1.311,1.709-3.224,1.64-4.276-.038-.514-.42-.968-1.3-.976-1.62-.008-3.234,1.567-4.591,3.679l-.035-.008a9.494,9.494,0,0,0,.953-2.924c-.012-.51-.3-.709-.908-.709a8.29,8.29,0,0,0-1.583.33c-.8.208-1.644.425-2.57.621-.57.077-.768.18-.751.386.117,3.226-2.08,7.022-3.544,7.035-.63,0-.773-.461-.773-1.094-.005-2.232,1.829-5.98,3.624-6.576.152-.046.306-.077.408-.11l.229-.6a14,14,0,0,1-1.762.107h-3.934c1.04-2.475,2.5-4.084,4.634-4.177,1.327-.044,2.22.456,2.3,1.217a2.029,2.029,0,0,1-.641,1.706l.146.146c1.171-.551,1.978-1.491,1.986-2.134.016-.992-1.183-1.6-3.095-1.584-2.428.017-5.422.563-7.51,4.9a2.72,2.72,0,0,0-1.666.837l.085.19a3.62,3.62,0,0,1,1.2-.139c-.29.708-.869,2.254-1.451,3.838-1.759,2.325-3.529,3.431-4.823,3.431-.709.024-.995-.37-1-1.047a5.37,5.37,0,0,1,.184-1.336,14.328,14.328,0,0,0,4.035-2.767,3.738,3.738,0,0,0,1.19-2.278c.008-.729-.44-1.105-1.364-1.117a5.972,5.972,0,0,0-3.938,1.984A8.817,8.817,0,0,0,184.872,220.044Zm5.752-6.456c.3,0,.423.207.423.469-.012,1.241-1.529,2.828-3.5,3.985C188.042,216.122,189.419,213.571,190.623,213.588Zm27.764-2.213a1.4,1.4,0,0,0,1.228-1.13.825.825,0,0,0-.788-1.1,1.4,1.4,0,0,0-1.23,1.136A.832.832,0,0,0,218.387,211.374ZM198.453,229.1c-20.156,0-40.633.245-40.633.543s20.477.554,40.633.554,40.632-.259,40.632-.554S218.61,229.1,198.453,229.1ZM165.9,214.738l.13-.113a2.426,2.426,0,0,1-.241-1.139c.069-2.625,2.84-4.116,7.172-4.116h2.4a7.924,7.924,0,0,0-3.458,3.916c-.384.873-2.22,5.564-2.968,7.672-.93,2.508-1.528,3.647-2.264,4.067l.126.225c2.075.129,3.314-.932,4.111-2.895.76-1.85,1.765-4.8,2.256-6.111,1.6-4.224,2.3-6,3.568-6.873,1.772-.008,3.481-.008,3.481-.008,1.9-.053,2.718-.525,3.314-1.264l-.134-.167a6.333,6.333,0,0,1-2.384.31H172.4c-4.84,0-7.808,1.591-8.289,3.959A2.044,2.044,0,0,0,165.9,214.738Zm-99.772-1.81h1.9l-1.1,6.213a3.78,3.78,0,0,1-1.245,2.392,4.116,4.116,0,0,1-2.749.85,3.857,3.857,0,0,1-2.6-.789,2.73,2.73,0,0,1-.912-2.268,8.206,8.206,0,0,1,.16-1.492l.875-4.907h2.071l-.961,5.449a5.627,5.627,0,0,0-.1.924,1.576,1.576,0,0,0,.283.974,1.518,1.518,0,0,0,1.27.493,1.853,1.853,0,0,0,1.467-.567,3.336,3.336,0,0,0,.653-1.689Zm4.044,0H71.7l3.353,6.065,1.073-6.065h1.861l-1.64,9.271H74.683l-3.266-5.769L70.406,222.2H68.544Zm13.709,6.94H80.872L79.75,222.2H77.63l4.734-9.271h2.33L86.42,222.2H84.25Zm-2.256-1.528h2.009l-.456-3.23h-.024Zm12.341-5.412,1.984,5.116,3.9-5.116h1.738L99.956,222.2H98.021l.937-5.412-2.5,3.292H94.828l-1.356-3.464-.986,5.584H90.71l1.627-9.271Zm13.524,6.94h-3.008l-1.122,2.33h-2.121l4.734-9.271h2.33l1.726,9.271h-2.17Zm-2.256-1.528h2.009l-.456-3.23h-.025Zm13.647-1.048a3.749,3.749,0,0,1-1.664,1.2l1.443,3.711H116.39l-1.085-3.366H114.06l-.58,3.366H111.36l1.627-9.271h3.156a3.692,3.692,0,0,1,2.453.678,2.507,2.507,0,0,1,.789,1.948A3.054,3.054,0,0,1,118.88,217.292Zm-4.549.012h.814a2.254,2.254,0,0,0,1.64-.481,1.714,1.714,0,0,0,.505-1.233,1.135,1.135,0,0,0-.271-.8,1.539,1.539,0,0,0-1.134-.333h-1.061Zm13.154-2.6a7.034,7.034,0,0,0-1.911-.321,2.385,2.385,0,0,0-2.207,1.171,6,6,0,0,0-.826,3.045,2.515,2.515,0,0,0,.394,1.529,1.987,1.987,0,0,0,1.726.616,10.566,10.566,0,0,0,1.861-.185l-.049,1.541a8.986,8.986,0,0,1-2.269.284c-2.527,0-3.859-1.159-3.859-3.674a7.024,7.024,0,0,1,1.628-4.623,4.467,4.467,0,0,1,3.427-1.344,8.152,8.152,0,0,1,2.613.456Zm6.386,5.165h-3.008l-1.122,2.33h-2.121l4.734-9.271h2.33l1.726,9.271h-2.17Zm-2.256-1.528h2.009l-.456-3.23h-.025Zm13.462-5.412a4.7,4.7,0,0,1,3.451,1.048,3.583,3.583,0,0,1,.814,2.577,6.094,6.094,0,0,1-1.529,4.265,5.512,5.512,0,0,1-4.241,1.381H140.7l1.627-9.271Zm-1.985,7.73h.7a2.674,2.674,0,0,0,2.5-1.147,5.252,5.252,0,0,0,.85-2.922,2.282,2.282,0,0,0-.444-1.565,2.072,2.072,0,0,0-1.677-.555h-.863Zm9.431.012h4.191l-.247,1.529h-6.336l1.627-9.271h6.263l-.431,1.529H153.6l-.382,2.244h3.18l-.283,1.59h-3.18Z" transform="translate(-59.421 -207.931)"/>
</svg>
